{
  "info": {
    "count": 551,
    "currentPage": 28,
    "pages": 28,
    "limit": 20,

    "next": null,
    "prev": "/vehicle/1?page=27&limit=20",
    "hasNext": false,
    "hasPrev": true,
    "startItem": 541,
    "endItem": 551
  },

  "data": [
    {
      "vehicle_id": 1,
      "vehicle_type_id": 17,
      "model_id": 1,
      "company_id": 1,
      "transport_category_id": 3,
      "company_serial_id": 1,
      "company_service_id": 1,
      "plate": "7692 ao",

      "year_manufactured": null,

      "notes": null,
      "created_at": "2025-07-24T09:06:17.842Z",

      "model": {
        "model_id": 1,
        "brand_id": 1,
        "chassis_id": 166,
        "bodywork_id": 127,
        "model_name": "Volvo B7RLE Volgren CR228L",

        "description": null,

        "year_from": null,

        "brand": {
          "brand_id": 1,
          "name": "Volvo",

          "logo": null,

          "url": null,

          "description": null,
          "created_at": "2025-07-24T08:52:34.805Z"
        },

        "chassis": {
          "chassis_id": 166,
          "brand_id": 1,
          "chassis_name": "Volvo B7RLE Euro V/EEV",

          "description": null,

          "brand": {
            "brand_id": 1,
            "name": "Volvo",

            "logo": null,

            "url": null,

            "description": null,
            "created_at": "2025-07-24T08:52:34.805Z"
          }
        },

        "bodywork": {
          "bodywork_id": 127,
          "brand_id": 1,
          "bodywork_name": "Volgren CR228L 'Futurebus'",
          "description": "69 pasajeros (44 de pie, 25 sentados). Aire acondicionado Cooltek CA329N",

          "brand": {
            "brand_id": 1,
            "name": "Volvo",

            "logo": null,

            "url": null,

            "description": null,
            "created_at": "2025-07-24T08:52:34.805Z"
          }
        }
      },

      "company": {
        "company_id": 1,
        "country_id": 7,
        "company_name": "PTV Public Transport Victoria",

        "servicio": null,

        "routes": null,

        "description": null,

        "company_logo": null,

        "city": null,

        "company_url": null,
        "active": true,
        "created_at": "2025-07-24T08:56:37.250Z"
      },

      "transportCategory": {
        "transport_category_id": 3,
        "name": "Transporte Internacional",
        "description": "Comprende autobuses habilitados para rutas transfronterizas que transportan pasajeros entre Colombia y países vecinos como Venezuela, Ecuador, Panamá, Brasil y Perú. Como tambien buses de empresas extranjeras que ingresan al territorio nacional. Tambien incluye autobuses de empresas de otros paises del mundo.",
        "slug": "transporte-internacional",
        "created_at": "2025-07-24T08:50:53.974Z"
      },

      "companySerial": {
        "company_serial_id": 1,
        "company_id": 4,
        "company_serial_code": "8390",

        "company": {
          "company_id": 4,
          "country_id": 1,
          "company_name": "Velotax",

          "servicio": null,

          "routes": null,
          "description": "Cooperativa de Transportes Velotax LTDA",

          "company_logo": null,

          "city": null,

          "company_url": null,
          "active": true,
          "created_at": "2025-07-24T08:56:37.250Z"
        }
      },

      "companyService": {
        "company_service_id": 1,
        "company_id": 1,
        "company_service_name": "Doncaster SC To City (King / Lonsdale St)",

        "company": {
          "company_id": 1,
          "country_id": 7,
          "company_name": "PTV Public Transport Victoria",

          "servicio": null,

          "routes": null,

          "description": null,

          "company_logo": null,

          "city": null,

          "company_url": null,
          "active": true,
          "created_at": "2025-07-24T08:56:37.250Z"
        }
      },

      "vehiclePhotos": [
        {
          "vehicle_photo_id": 1,
          "vehicle_id": 1,
          "image_url": "https://res.cloudinary.com/dkj6yzrrk/image/upload/v1736662846/autobusesdecolombia/tbohalck1y0kzbmk0nku.webp",
          "photographer_id": 1,
          "country_id": 7,
          "location": "Melbourne",

          "department": null,

          "description": null,

          "notes": null,

          "tags": null,

          "status": null,

          "likes": null,

          "views": null,

          "favorites": null,

          "shares": null,

          "comments": null,

          "downloads": null,
          "created_at": "2025-07-24T09:08:07.251Z",

          "photographer": {
            "photographer_id": 1,
            "name": "Dieghoatc",

            "email": null,

            "phone": null,
            "active": true,
            "created_at": "2025-07-24T08:58:51.918Z"
          }
        }
      ]
    }
  ]
}
